<?xml version="1.0" encoding="UTF-8" standalone="no"?>
<!-- Created with Inkscape (http://www.inkscape.org/) -->

<svg
   width="1920"
   height="1080"
   viewBox="0 0 508 285.75"
   version="1.1"
   id="svg1"
   inkscape:version="1.3.2 (091e20ef0f, 2023-11-25)"
   sodipodi:docname="hallo.svg"
   xmlns:inkscape="http://www.inkscape.org/namespaces/inkscape"
   xmlns:sodipodi="http://sodipodi.sourceforge.net/DTD/sodipodi-0.dtd"
   xmlns="http://www.w3.org/2000/svg"
   xmlns:svg="http://www.w3.org/2000/svg">
  <sodipodi:namedview
     id="namedview1"
     pagecolor="#ffffff"
     bordercolor="#000000"
     borderopacity="0.25"
     inkscape:showpageshadow="2"
     inkscape:pageopacity="0.0"
     inkscape:pagecheckerboard="0"
     inkscape:deskcolor="#d1d1d1"
     inkscape:document-units="mm"
     inkscape:zoom="0.55370687"
     inkscape:cx="975.24526"
     inkscape:cy="611.3343"
     inkscape:window-width="1366"
     inkscape:window-height="744"
     inkscape:window-x="0"
     inkscape:window-y="0"
     inkscape:window-maximized="0"
     inkscape:current-layer="layer1" />
  <defs
     id="defs1" />
  <g
     inkscape:label="Layer 1"
     inkscape:groupmode="layer"
     id="layer1">
    <path
       sodipodi:type="star"
       style="fill:#bbbbbb;stroke:#000000;stroke-width:0.665001"
       id="path1"
       inkscape:flatsided="false"
       sodipodi:sides="5"
       sodipodi:cx="164.76337"
       sodipodi:cy="128.70883"
       sodipodi:r1="122.20122"
       sodipodi:r2="79.195717"
       sodipodi:arg1="0.54130491"
       sodipodi:arg2="1.1696234"
       inkscape:rounded="0"
       inkscape:randomized="0"
       d="m 269.49434,191.67359 -73.80517,9.9431 -58.4452,46.1544 -32.2635,-67.1203 -61.955997,-41.3222 53.865228,-51.425728 20.154289,-71.692913 65.55404,35.337453 74.41203,-2.986461 -13.3506,73.265479 z"
       inkscape:transform-center-x="8.5039636"
       inkscape:transform-center-y="3.2816839" />
  </g>
</svg>
