<?xml version="1.0" encoding="UTF-8" standalone="no"?>
<!-- Created with Inkscape (http://www.inkscape.org/) -->

<svg
   width="1920"
   height="1080"
   viewBox="0 0 508 285.75"
   version="1.1"
   id="svg1"
   inkscape:version="1.3.2 (091e20ef0f, 2023-11-25)"
   sodipodi:docname="hoha.svg"
   xmlns:inkscape="http://www.inkscape.org/namespaces/inkscape"
   xmlns:sodipodi="http://sodipodi.sourceforge.net/DTD/sodipodi-0.dtd"
   xmlns="http://www.w3.org/2000/svg"
   xmlns:svg="http://www.w3.org/2000/svg">
  <sodipodi:namedview
     id="namedview1"
     pagecolor="#ffffff"
     bordercolor="#000000"
     borderopacity="0.25"
     inkscape:showpageshadow="2"
     inkscape:pageopacity="0.0"
     inkscape:pagecheckerboard="0"
     inkscape:deskcolor="#d1d1d1"
     inkscape:document-units="mm"
     inkscape:zoom="0.55370687"
     inkscape:cx="975.24526"
     inkscape:cy="611.3343"
     inkscape:window-width="1366"
     inkscape:window-height="744"
     inkscape:window-x="0"
     inkscape:window-y="0"
     inkscape:window-maximized="0"
     inkscape:current-layer="layer1" />
  <defs
     id="defs1">
    <inkscape:path-effect
       effect="spiro"
       id="path-effect3"
       is_visible="true"
       lpeversion="1" />
  </defs>
  <g
     inkscape:label="Layer 1"
     inkscape:groupmode="layer"
     id="layer1">
    <path
       sodipodi:type="star"
       style="fill:#bbbbbb;stroke:#000000;stroke-width:0.665001"
       id="path1"
       inkscape:flatsided="false"
       sodipodi:sides="5"
       sodipodi:cx="164.76337"
       sodipodi:cy="128.70883"
       sodipodi:r1="122.20122"
       sodipodi:r2="79.195717"
       sodipodi:arg1="0.54130491"
       sodipodi:arg2="1.1696234"
       inkscape:rounded="0"
       inkscape:randomized="0"
       d="m 269.49434,191.67359 -73.80517,9.9431 -58.4452,46.1544 -32.2635,-67.1203 -61.955997,-41.3222 53.865228,-51.425728 20.154289,-71.692913 65.55404,35.337453 74.41203,-2.986461 -13.3506,73.265479 z"
       inkscape:transform-center-x="8.5039636"
       inkscape:transform-center-y="3.2816839" />
    <ellipse
       style="fill:#bbbbbb;stroke:#000000;stroke-width:0.665001"
       id="path2"
       cx="284.00687"
       cy="200.56216"
       rx="52.735996"
       ry="49.482578" />
    <path
       style="fill:#bbbbbb;stroke:#000000;stroke-width:0.665001"
       d="m 318.52147,120.85807 c -12.98779,-14.80031 -31.06132,-25.052019 -50.42911,-28.604523 -19.36779,-3.552505 -39.90317,-0.382565 -57.29819,8.844823 -17.39503,9.22739 -31.53593,24.45188 -39.45622,42.47966 -7.92028,18.02778 -9.56815,38.74093 -4.5979,57.79423 4.96161,19.02019 16.4068,36.18281 31.64815,48.59597 15.24135,12.41315 34.1609,20.10471 53.6691,22.51621 19.50819,2.4115 39.55528,-0.38748 57.91104,-7.41962 18.35576,-7.03215 35.02298,-18.23795 48.95488,-32.10472 22.33874,-22.23431 37.6241,-51.45284 43.14991,-82.48265 5.5258,-31.02981 1.26676,-63.728819 -12.02311,-92.307887"
       id="path3"
       inkscape:path-effect="#path-effect3"
       inkscape:original-d="m 318.52147,120.85807 c -13.38387,-37.090466 -100.93625,53.50876 -151.78142,80.51419 -50.84517,27.00543 127.95413,21.25082 192.18317,31.58784 64.22905,10.33702 20.66784,-116.46792 31.1268,-174.790537" />
  </g>
</svg>
