<?xml version="1.0" encoding="UTF-8" standalone="no"?>
<!-- Created with Inkscape (http://www.inkscape.org/) -->

<svg
   width="1920"
   height="1080"
   viewBox="0 0 508 285.75"
   version="1.1"
   id="svg1"
   inkscape:version="1.3.2 (091e20ef0f, 2023-11-25)"
   sodipodi:docname="testibunti2.svg"
   xmlns:inkscape="http://www.inkscape.org/namespaces/inkscape"
   xmlns:sodipodi="http://sodipodi.sourceforge.net/DTD/sodipodi-0.dtd"
   xmlns="http://www.w3.org/2000/svg"
   xmlns:svg="http://www.w3.org/2000/svg">
  <sodipodi:namedview
     id="namedview1"
     pagecolor="#ffffff"
     bordercolor="#000000"
     borderopacity="0.25"
     inkscape:showpageshadow="2"
     inkscape:pageopacity="0.0"
     inkscape:pagecheckerboard="0"
     inkscape:deskcolor="#d1d1d1"
     inkscape:document-units="mm"
     inkscape:zoom="0.55370687"
     inkscape:cx="975.24526"
     inkscape:cy="611.3343"
     inkscape:window-width="1366"
     inkscape:window-height="744"
     inkscape:window-x="0"
     inkscape:window-y="0"
     inkscape:window-maximized="0"
     inkscape:current-layer="layer1" />
  <defs
     id="defs1" />
  <g
     inkscape:label="Layer 1"
     inkscape:groupmode="layer"
     id="layer1">
    <ellipse
       style="fill:#bbbbbb;stroke:#000000;stroke-width:0.665001"
       id="path1"
       cx="175.56329"
       cy="121.9752"
       rx="58.625004"
       ry="12.936213" />
    <rect
       style="fill:#bbbbbb;stroke:#000000;stroke-width:0.665001"
       id="rect1"
       width="70.481415"
       height="77.497818"
       x="164.99109"
       y="119.00645" />
    <path
       sodipodi:type="spiral"
       style="fill:none;fill-rule:evenodd;stroke:#000000;stroke-width:0.264583"
       id="path2"
       sodipodi:cx="195.17714"
       sodipodi:cy="138.58855"
       sodipodi:expansion="1"
       sodipodi:revolution="3.5881927"
       sodipodi:radius="54.420349"
       sodipodi:argument="-21.950769"
       sodipodi:t0="0"
       d="m 195.17714,138.58855 c -2.27941,-0.0921 -1.00045,-3.11804 0.15306,-3.78854 3.12593,-1.817 6.60827,1.12164 7.42401,4.09466 1.45916,5.31803 -2.98676,10.19933 -8.03625,11.05948 -7.41035,1.26232 -13.85535,-4.86218 -14.69496,-11.97785 -1.11908,-9.48406 6.73931,-17.53655 15.91944,-18.33043 11.55226,-0.99902 21.2303,8.61677 21.96592,19.86104 0.89093,13.61832 -10.49433,24.93119 -23.80265,25.60139 -15.68339,0.78981 -28.63656,-12.37191 -29.23686,-27.74424 -0.69307,-17.74796 14.24953,-32.34492 31.68584,-32.87234 19.81224,-0.59928 36.05538,16.12717 36.50781,35.62744 0.50756,21.87635 -18.00483,39.76736 -39.56903,40.14328 -23.94035,0.41735 -43.48049,-19.88251 -43.77876,-43.51063 -0.32827,-26.00427 21.76021,-47.194495 47.45222,-47.414232 28.06816,-0.240059 50.9092,23.637922 51.04971,51.393822 0.0504,9.95998 -2.75102,19.85141 -7.95644,28.33815" />
    <path
       sodipodi:type="spiral"
       style="fill:none;fill-rule:evenodd;stroke:#000000;stroke-width:0.264583"
       id="path3"
       sodipodi:cx="260.57031"
       sodipodi:cy="162.05125"
       sodipodi:expansion="1"
       sodipodi:revolution="3.5881927"
       sodipodi:radius="39.639248"
       sodipodi:argument="-21.521832"
       sodipodi:t0="0"
       d="m 260.57031,162.05125 c -1.48199,-0.75153 0.28189,-2.36847 1.24909,-2.46317 2.62108,-0.25662 4.03756,2.7449 3.67726,4.96136 -0.6445,3.96472 -5.06824,5.85126 -8.67362,4.89133 -5.29105,-1.40873 -7.70488,-7.41809 -6.10542,-12.38588 2.13184,-6.6213 9.7767,-9.57467 16.09815,-7.3195 7.95491,2.83791 11.45265,12.13932 8.53358,19.81042 -3.5354,9.29072 -14.50417,13.33535 -23.52268,9.74765 -10.62801,-4.22797 -15.22101,-16.8704 -10.96174,-27.23494 4.9175,-11.96628 19.23756,-17.10863 30.94721,-12.17582 13.30525,5.60498 18.99764,21.60537 13.3899,34.65947 -6.29104,14.64474 -23.97365,20.88765 -38.37174,14.60398 -15.98461,-6.97607 -22.77841,-26.34229 -15.81806,-42.084 7.66033,-17.32478 28.71121,-24.66975 45.79627,-17.03214 18.66518,8.34399 26.56155,31.08035 18.24622,49.50853 -2.98389,6.61281 -7.8361,12.31625 -13.85518,16.36097" />
  </g>
</svg>
